CSSS 508, Lecture 3
…
Sometimes we want to sort data by row, in either ascending (lower to high) or descending (high to low) order. We can do that with `arrange()`.

`arrange` uses ascending order by default. Arrange by descending order using the function `desc`.

--

For example, we can sort Yugoslavia first by year and population:

```r
Yugoslavia %>% arrange(year, desc(pop))
```

```
## # A tibble: 60 × 6
##    country                continent  year lifeExp     pop gdpPercap
##    <fct>                  <fct>     <int>   <dbl>   <int>     <dbl>
##  1 Serbia                 Europe     1952    58.0 6860147     3581.
##  2 Croatia                Europe     1952    61.2 3882229     3119.
##  3 Bosnia and Herzegovina Europe     1952    53.8 2791000      974.
##  4 Slovenia               Europe     1952    65.6 1489518     4215.
##  5 Montenegro             Europe     1952    59.2  413834     2648.
##  6 Serbia                 Europe     1957    61.7 7271135     4981.
##  7 Croatia                Europe     1957    64.8 3991242     4338.
##  8 Bosnia and Herzegovina Europe     1957    58.4 3076000     1354.
##  9 Slovenia               Europe     1957    67.8 1533070     5862.
## 10 Montenegro             Europe     1957    61.4  442829     3682.
## # … with 50 more rows
```
…
